{
  "values": [
    "aoa3:abyssal_stone",
    "aoa3:aromatic_stone",
    "aoa3:baron_stone",
    "aoa3:bright_rock",
    "aoa3:coral_rock",
    "aoa3:creep_stone",
    "aoa3:crystallised_rock",
    "aoa3:darkened_rock",
    "aoa3:dense_stone",
    "aoa3:fungal_rock",
    "aoa3:greckon_stone",
    "aoa3:hellstone",
    "aoa3:irostone",
    "aoa3:lelyetian_stone",
    "aoa3:polluted_stone",
    "aoa3:precasian_stone",
    "aoa3:pressed_creep_stone",
    "aoa3:primed_stone",
    "aoa3:runic_stone",
    "aoa3:weightless_stone",
    "aoa3:bone_fragments_ore",
    "aoa3:deepslate_bone_fragments_ore",
    "aoa3:precasian_iron_ore",
    "aoa3:precasian_gold_ore",
    "aoa3:precasian_quartz_ore",
    "aoa3:precasian_redstone_ore",
    "aoa3:precasian_lapis_ore",
    "aoa3:precasian_copper_ore",
    "aoa3:baronyte_ore",
    "aoa3:blazium_ore",
    "aoa3:bloodstone_ore",
    "aoa3:blue_gemstone_ore",
    "aoa3:charged_runium_ore",
    "aoa3:crystallite_ore",
    "aoa3:elecanium_ore",
    "aoa3:emberstone_ore",
    "aoa3:gemenyte_ore",
    "aoa3:ghastly_ore",
    "aoa3:ghoulish_ore",
    "aoa3:green_gemstone_ore",
    "aoa3:jade_ore",
    "aoa3:deepslate_jade_ore",
    "aoa3:jewelyte_ore",
    "aoa3:limonite_ore",
    "aoa3:deepslate_limonite_ore",
    "aoa3:lyon_ore",
    "aoa3:mystite_ore",
    "aoa3:ornamyte_ore",
    "aoa3:purple_gemstone_ore",
    "aoa3:red_gemstone_ore",
    "aoa3:runium_ore",
    "aoa3:deepslate_runium_ore",
    "aoa3:netherrack_runium_ore",
    "aoa3:shyregem_ore",
    "aoa3:shyrestone_ore",
    "aoa3:varsium_ore",
    "aoa3:white_gemstone_ore",
    "aoa3:yellow_gemstone_ore",
    "aoa3:archaic_tile",
    "aoa3:archaic_tile_node",
    "aoa3:archaic_tile_small",
    "aoa3:archaic_tile_stream",
    "aoa3:baron_stone_bricks",
    "aoa3:baron_tiles",
    "aoa3:bloodstone_bricks",
    "aoa3:coral_bricks",
    "aoa3:creeponia_bricks",
    "aoa3:crystallite_bricks",
    "aoa3:crystevia_bricks",
    "aoa3:dark_bricks",
    "aoa3:darkwash_bricks",
    "aoa3:gardencia_bricks",
    "aoa3:greckon_bricks",
    "aoa3:haunted_bricks",
    "aoa3:hellstone_bricks",
    "aoa3:iro_dotted_bricks",
    "aoa3:iro_striped_bricks",
    "aoa3:lelyetian_bricks",
    "aoa3:lunar_bricks",
    "aoa3:black_mysterium_bricks",
    "aoa3:green_mysterium_bricks",
    "aoa3:rosidian_bricks",
    "aoa3:runic_stone_bricks",
    "aoa3:chiselled_runic_stone_bricks",
    "aoa3:white_shyre_bricks",
    "aoa3:yellow_shyre_bricks",
    "aoa3:skeletal_bricks",
    "aoa3:whitewash_bricks",
    "aoa3:natural_ivory",
    "aoa3:patterned_ivory",
    "aoa3:intricate_ivory",
    "aoa3:ornate_ivory",
    "aoa3:natural_amethyst_ivory",
    "aoa3:patterned_amethyst_ivory",
    "aoa3:intricate_amethyst_ivory",
    "aoa3:ornate_amethyst_ivory",
    "aoa3:natural_jade_ivory",
    "aoa3:patterned_jade_ivory",
    "aoa3:intricate_jade_ivory",
    "aoa3:ornate_jade_ivory",
    "aoa3:natural_limonite_ivory",
    "aoa3:patterned_limonite_ivory",
    "aoa3:intricate_limonite_ivory",
    "aoa3:ornate_limonite_ivory",
    "aoa3:natural_redstone_ivory",
    "aoa3:patterned_redstone_ivory",
    "aoa3:intricate_redstone_ivory",
    "aoa3:ornate_redstone_ivory",
    "aoa3:natural_lapis_ivory",
    "aoa3:patterned_lapis_ivory",
    "aoa3:intricate_lapis_ivory",
    "aoa3:ornate_lapis_ivory",
    "aoa3:archaic_tile_slab",
    "aoa3:archaic_tile_small_slab",
    "aoa3:archaic_tile_node_slab",
    "aoa3:archaic_tile_stream_slab",
    "aoa3:abyssal_stone_slab",
    "aoa3:aromatic_stone_slab",
    "aoa3:baron_stone_brick_slab",
    "aoa3:baron_tile_slab",
    "aoa3:baron_stone_slab",
    "aoa3:black_mysterium_brick_slab",
    "aoa3:bloodstone_brick_slab",
    "aoa3:bright_rock_slab",
    "aoa3:coral_brick_slab",
    "aoa3:coral_rock_slab",
    "aoa3:creeponia_brick_slab",
    "aoa3:creep_stone_slab",
    "aoa3:crystallised_rock_slab",
    "aoa3:crystallite_brick_slab",
    "aoa3:crystevia_brick_slab",
    "aoa3:darkened_rock_slab",
    "aoa3:darkwash_brick_slab",
    "aoa3:dark_brick_slab",
    "aoa3:dense_stone_slab",
    "aoa3:fungal_rock_slab",
    "aoa3:gardencia_brick_slab",
    "aoa3:greckon_brick_slab",
    "aoa3:greckon_stone_slab",
    "aoa3:green_mysterium_brick_slab",
    "aoa3:haunted_brick_slab",
    "aoa3:hellstone_slab",
    "aoa3:hellstone_brick_slab",
    "aoa3:intricate_amethyst_ivory_slab",
    "aoa3:intricate_ivory_slab",
    "aoa3:intricate_jade_ivory_slab",
    "aoa3:intricate_limonite_ivory_slab",
    "aoa3:intricate_redstone_ivory_slab",
    "aoa3:intricate_lapis_ivory_slab",
    "aoa3:irostone_slab",
    "aoa3:iro_dotted_brick_slab",
    "aoa3:iro_striped_brick_slab",
    "aoa3:lelyetian_brick_slab",
    "aoa3:lelyetian_stone_slab",
    "aoa3:lunar_brick_slab",
    "aoa3:natural_amethyst_ivory_slab",
    "aoa3:natural_ivory_slab",
    "aoa3:natural_jade_ivory_slab",
    "aoa3:natural_limonite_ivory_slab",
    "aoa3:natural_redstone_ivory_slab",
    "aoa3:natural_lapis_ivory_slab",
    "aoa3:ornate_amethyst_ivory_slab",
    "aoa3:ornate_ivory_slab",
    "aoa3:ornate_jade_ivory_slab",
    "aoa3:ornate_limonite_ivory_slab",
    "aoa3:ornate_redstone_ivory_slab",
    "aoa3:ornate_lapis_ivory_slab",
    "aoa3:patterned_amethyst_ivory_slab",
    "aoa3:patterned_ivory_slab",
    "aoa3:patterned_jade_ivory_slab",
    "aoa3:patterned_limonite_ivory_slab",
    "aoa3:patterned_redstone_ivory_slab",
    "aoa3:patterned_lapis_ivory_slab",
    "aoa3:polluted_stone_slab",
    "aoa3:precasian_stone_slab",
    "aoa3:pressed_creep_stone_slab",
    "aoa3:primed_stone_slab",
    "aoa3:rosidian_brick_slab",
    "aoa3:runic_stone_brick_slab",
    "aoa3:chiselled_runic_stone_brick_slab",
    "aoa3:runic_stone_slab",
    "aoa3:skeletal_brick_slab",
    "aoa3:weightless_stone_slab",
    "aoa3:whitewash_brick_slab",
    "aoa3:white_shyre_brick_slab",
    "aoa3:yellow_shyre_brick_slab",
    "aoa3:archaic_tile_stairs",
    "aoa3:archaic_tile_small_stairs",
    "aoa3:archaic_tile_node_stairs",
    "aoa3:archaic_tile_stream_stairs",
    "aoa3:abyssal_stone_stairs",
    "aoa3:aromatic_stone_stairs",
    "aoa3:baron_stone_brick_stairs",
    "aoa3:baron_tile_stairs",
    "aoa3:baron_stone_stairs",
    "aoa3:black_mysterium_brick_stairs",
    "aoa3:bloodstone_brick_stairs",
    "aoa3:bright_rock_stairs",
    "aoa3:coral_brick_stairs",
    "aoa3:coral_rock_stairs",
    "aoa3:creeponia_brick_stairs",
    "aoa3:creep_stone_stairs",
    "aoa3:crystallised_rock_stairs",
    "aoa3:crystallite_brick_stairs",
    "aoa3:crystevia_brick_stairs",
    "aoa3:darkened_rock_stairs",
    "aoa3:darkwash_brick_stairs",
    "aoa3:dark_brick_stairs",
    "aoa3:dense_stone_stairs",
    "aoa3:fungal_rock_stairs",
    "aoa3:gardencia_brick_stairs",
    "aoa3:greckon_brick_stairs",
    "aoa3:greckon_stone_stairs",
    "aoa3:green_mysterium_brick_stairs",
    "aoa3:haunted_brick_stairs",
    "aoa3:hellstone_stairs",
    "aoa3:hellstone_brick_stairs",
    "aoa3:intricate_amethyst_ivory_stairs",
    "aoa3:intricate_ivory_stairs",
    "aoa3:intricate_jade_ivory_stairs",
    "aoa3:intricate_limonite_ivory_stairs",
    "aoa3:intricate_redstone_ivory_stairs",
    "aoa3:intricate_lapis_ivory_stairs",
    "aoa3:irostone_stairs",
    "aoa3:iro_dotted_brick_stairs",
    "aoa3:iro_striped_brick_stairs",
    "aoa3:lelyetian_brick_stairs",
    "aoa3:lelyetian_stone_stairs",
    "aoa3:lunar_brick_stairs",
    "aoa3:natural_amethyst_ivory_stairs",
    "aoa3:natural_ivory_stairs",
    "aoa3:natural_jade_ivory_stairs",
    "aoa3:natural_limonite_ivory_stairs",
    "aoa3:natural_redstone_ivory_stairs",
    "aoa3:natural_lapis_ivory_stairs",
    "aoa3:ornate_amethyst_ivory_stairs",
    "aoa3:ornate_ivory_stairs",
    "aoa3:ornate_jade_ivory_stairs",
    "aoa3:ornate_limonite_ivory_stairs",
    "aoa3:ornate_redstone_ivory_stairs",
    "aoa3:ornate_lapis_ivory_stairs",
    "aoa3:patterned_amethyst_ivory_stairs",
    "aoa3:patterned_ivory_stairs",
    "aoa3:patterned_jade_ivory_stairs",
    "aoa3:patterned_limonite_ivory_stairs",
    "aoa3:patterned_redstone_ivory_stairs",
    "aoa3:patterned_lapis_ivory_stairs",
    "aoa3:polluted_stone_stairs",
    "aoa3:precasian_stone_stairs",
    "aoa3:pressed_creep_stone_stairs",
    "aoa3:primed_stone_stairs",
    "aoa3:rosidian_brick_stairs",
    "aoa3:runic_stone_brick_stairs",
    "aoa3:chiselled_runic_stone_brick_stairs",
    "aoa3:runic_stone_stairs",
    "aoa3:skeletal_brick_stairs",
    "aoa3:weightless_stone_stairs",
    "aoa3:whitewash_brick_stairs",
    "aoa3:white_shyre_brick_stairs",
    "aoa3:yellow_shyre_brick_stairs",
    "aoa3:archaic_tile_wall",
    "aoa3:archaic_tile_small_wall",
    "aoa3:archaic_tile_node_wall",
    "aoa3:archaic_tile_stream_wall",
    "aoa3:abyssal_stone_wall",
    "aoa3:aromatic_stone_wall",
    "aoa3:baron_stone_brick_wall",
    "aoa3:baron_tile_wall",
    "aoa3:baron_stone_wall",
    "aoa3:black_mysterium_brick_wall",
    "aoa3:bloodstone_brick_wall",
    "aoa3:bright_rock_wall",
    "aoa3:coral_brick_wall",
    "aoa3:coral_rock_wall",
    "aoa3:creeponia_brick_wall",
    "aoa3:creep_stone_wall",
    "aoa3:crystallised_rock_wall",
    "aoa3:crystallite_brick_wall",
    "aoa3:crystevia_brick_wall",
    "aoa3:darkened_rock_wall",
    "aoa3:darkwash_brick_wall",
    "aoa3:dark_brick_wall",
    "aoa3:dense_stone_wall",
    "aoa3:fungal_rock_wall",
    "aoa3:gardencia_brick_wall",
    "aoa3:greckon_brick_wall",
    "aoa3:greckon_stone_wall",
    "aoa3:green_mysterium_brick_wall",
    "aoa3:haunted_brick_wall",
    "aoa3:hellstone_wall",
    "aoa3:hellstone_brick_wall",
    "aoa3:intricate_amethyst_ivory_wall",
    "aoa3:intricate_ivory_wall",
    "aoa3:intricate_jade_ivory_wall",
    "aoa3:intricate_limonite_ivory_wall",
    "aoa3:intricate_redstone_ivory_wall",
    "aoa3:intricate_lapis_ivory_wall",
    "aoa3:irostone_wall",
    "aoa3:iro_dotted_brick_wall",
    "aoa3:iro_striped_brick_wall",
    "aoa3:lelyetian_brick_wall",
    "aoa3:lelyetian_stone_wall",
    "aoa3:lunar_brick_wall",
    "aoa3:natural_amethyst_ivory_wall",
    "aoa3:natural_ivory_wall",
    "aoa3:natural_jade_ivory_wall",
    "aoa3:natural_limonite_ivory_wall",
    "aoa3:natural_redstone_ivory_wall",
    "aoa3:natural_lapis_ivory_wall",
    "aoa3:ornate_amethyst_ivory_wall",
    "aoa3:ornate_ivory_wall",
    "aoa3:ornate_jade_ivory_wall",
    "aoa3:ornate_limonite_ivory_wall",
    "aoa3:ornate_redstone_ivory_wall",
    "aoa3:ornate_lapis_ivory_wall",
    "aoa3:patterned_amethyst_ivory_wall",
    "aoa3:patterned_ivory_wall",
    "aoa3:patterned_jade_ivory_wall",
    "aoa3:patterned_limonite_ivory_wall",
    "aoa3:patterned_redstone_ivory_wall",
    "aoa3:patterned_lapis_ivory_wall",
    "aoa3:polluted_stone_wall",
    "aoa3:precasian_stone_wall",
    "aoa3:pressed_creep_stone_wall",
    "aoa3:primed_stone_wall",
    "aoa3:rosidian_brick_wall",
    "aoa3:runic_stone_brick_wall",
    "aoa3:chiselled_runic_stone_brick_wall",
    "aoa3:runic_stone_wall",
    "aoa3:skeletal_brick_wall",
    "aoa3:weightless_stone_wall",
    "aoa3:whitewash_brick_wall",
    "aoa3:white_shyre_brick_wall",
    "aoa3:yellow_shyre_brick_wall",
    "aoa3:archaic_light",
    "aoa3:creep_crystal",
    "aoa3:hive_light",
    "aoa3:steel_light",
    "aoa3:vox_light",
    "aoa3:baronyte_block",
    "aoa3:blazium_block",
    "aoa3:bloodstone_block",
    "aoa3:crystallite_block",
    "aoa3:elecanium_block",
    "aoa3:emberstone_block",
    "aoa3:gemenyte_block",
    "aoa3:ghastly_ingot_block",
    "aoa3:ghoulish_ingot_block",
    "aoa3:jade_block",
    "aoa3:jewelyte_block",
    "aoa3:limonite_block",
    "aoa3:lunar_block",
    "aoa3:lyon_block",
    "aoa3:mystite_block",
    "aoa3:ornamyte_block",
    "aoa3:shyregem_block",
    "aoa3:shyrestone_block",
    "aoa3:skeletal_ingot_block",
    "aoa3:varsium_block",
    "aoa3:baron_stone_button",
    "aoa3:darkened_rock_button",
    "aoa3:dense_stone_button",
    "aoa3:hellstone_button",
    "aoa3:irostone_button",
    "aoa3:runic_stone_button",
    "aoa3:kaiyu_temple_block_face",
    "aoa3:kaiyu_temple_block_flow",
    "aoa3:kaiyu_temple_block_maze",
    "aoa3:kaiyu_temple_block_pass",
    "aoa3:kaiyu_temple_block_plain",
    "aoa3:kaiyu_temple_block_squares",
    "aoa3:kaiyu_temple_block_track",
    "aoa3:black_ancient_tile",
    "aoa3:ancient_tile_core",
    "aoa3:green_ancient_tile",
    "aoa3:ancient_tile_shrine",
    "aoa3:white_ancient_tile",
    "aoa3:ancient_rock",
    "aoa3:degraded_steel",
    "aoa3:kaiyu_temple_trap_wither",
    "aoa3:kaiyu_temple_trap_damage",
    "aoa3:kaiyu_temple_trap_poison",
    "aoa3:kaiyu_temple_trap_fire",
    "aoa3:lunar_pad",
    "aoa3:compass_rune_post",
    "aoa3:distortion_rune_post",
    "aoa3:energy_rune_post",
    "aoa3:fire_rune_post",
    "aoa3:kinetic_rune_post",
    "aoa3:life_rune_post",
    "aoa3:poison_rune_post",
    "aoa3:lunar_rune_post",
    "aoa3:power_rune_post",
    "aoa3:storm_rune_post",
    "aoa3:strike_rune_post",
    "aoa3:water_rune_post",
    "aoa3:wind_rune_post",
    "aoa3:wither_rune_post",
    "aoa3:charging_table",
    "aoa3:archaic_ladder",
    "aoa3:steel_plate",
    "aoa3:carved_rune_of_direction",
    "aoa3:carved_rune_of_power",
    "aoa3:carved_rune_of_reality",
    "aoa3:carved_rune_of_space",
    "aoa3:carved_rune_of_travel",
    "aoa3:boss_altar",
    "aoa3:army_block",
    "aoa3:baroness_altar",
    "aoa3:clunkhead_altar",
    "aoa3:craexxeus_altar",
    "aoa3:creep_altar",
    "aoa3:dracyon_altar",
    "aoa3:graw_altar",
    "aoa3:guardian_altar",
    "aoa3:hive_spawner",
    "aoa3:illusion_altar",
    "aoa3:kror_altar",
    "aoa3:mechbot_altar",
    "aoa3:power_station",
    "aoa3:primordial_shrine",
    "aoa3:shadow_altar",
    "aoa3:vinocorne_shrine",
    "aoa3:voxxulon_altar",
    "aoa3:blue_crystal_creator",
    "aoa3:green_crystal_creator",
    "aoa3:purple_crystal_creator",
    "aoa3:red_crystal_creator",
    "aoa3:white_crystal_creator",
    "aoa3:yellow_crystal_creator",
    "aoa3:crystal_extension_shrine",
    "aoa3:deep_case",
    "aoa3:divine_station",
    "aoa3:haunting_table",
    "aoa3:infusion_table",
    "aoa3:lunar_creation_table",
    "aoa3:mineralization_station",
    "aoa3:petal_crafting_station",
    "aoa3:rune_randomizer",
    "aoa3:runic_block",
    "aoa3:tea_sink",
    "aoa3:whitewashing_table",
    "aoa3:iropole",
    "aoa3:lunar_pillar",
    "aoa3:spikey_pillar",
    "aoa3:shyre_crust",
    "aoa3:trophy",
    "aoa3:gold_trophy",
    "aoa3:ornate_trophy"
  ]
}