{
  "type": "minecraft:chest",
  "pools": [
    {
      "bonus_rolls": {
        "type": "minecraft:uniform",
        "max": 1.0,
        "min": -1.0
      },
      "entries": [
        {
          "type": "minecraft:empty",
          "quality": -2,
          "weight": 300
        },
        {
          "type": "minecraft:item",
          "functions": [
            {
              "add": false,
              "count": {
                "type": "minecraft:uniform",
                "max": 2.0,
                "min": 1.0
              },
              "function": "minecraft:set_count"
            }
          ],
          "name": "aoa3:shyregem",
          "weight": 10
        },
        {
          "type": "minecraft:item",
          "functions": [
            {
              "add": false,
              "count": {
                "type": "minecraft:uniform",
                "max": 2.0,
                "min": 1.0
              },
              "function": "minecraft:set_count"
            }
          ],
          "name": "aoa3:shyrestone_ingot",
          "weight": 10
        },
        {
          "type": "minecraft:item",
          "functions": [
            {
              "add": false,
              "count": {
                "type": "minecraft:uniform",
                "max": 6.0,
                "min": 2.0
              },
              "function": "minecraft:set_count"
            }
          ],
          "name": "aoa3:shyrestone_nugget",
          "weight": 20
        },
        {
          "type": "minecraft:item",
          "functions": [
            {
              "add": false,
              "count": {
                "type": "minecraft:uniform",
                "max": 45.0,
                "min": 1.0
              },
              "function": "minecraft:set_count"
            }
          ],
          "name": "aoa3:white_shyre_bricks",
          "weight": 50
        },
        {
          "type": "minecraft:item",
          "functions": [
            {
              "add": false,
              "count": {
                "type": "minecraft:uniform",
                "max": 45.0,
                "min": 1.0
              },
              "function": "minecraft:set_count"
            }
          ],
          "name": "aoa3:yellow_shyre_bricks",
          "weight": 50
        },
        {
          "type": "minecraft:item",
          "functions": [
            {
              "add": false,
              "count": {
                "type": "minecraft:uniform",
                "max": 2.0,
                "min": 1.0
              },
              "function": "minecraft:set_count"
            }
          ],
          "name": "aoa3:magic_repair_dust",
          "weight": 5
        },
        {
          "type": "minecraft:item",
          "functions": [
            {
              "enchantments": [
                "minecraft:unbreaking",
                "minecraft:fortune",
                "minecraft:efficiency",
                "minecraft:silk_touch"
              ],
              "function": "minecraft:enchant_randomly"
            }
          ],
          "name": "minecraft:diamond_pickaxe",
          "weight": 27
        },
        {
          "type": "minecraft:item",
          "functions": [
            {
              "add": false,
              "count": {
                "type": "minecraft:uniform",
                "max": 35.0,
                "min": 2.0
              },
              "function": "minecraft:set_count"
            }
          ],
          "name": "aoa3:shyre_log",
          "weight": 35
        },
        {
          "type": "minecraft:item",
          "name": "aoa3:ancient_upgrade_kit",
          "quality": 1
        }
      ],
      "rolls": 10.0
    }
  ]
}